{"name":"call api employee create","id":"call-api-successfully;call-api-employee-create","scenarioId":"get_user:call api employee create","methodName":"call api employee create","testSteps":[{"number":1,"description":"Given user call an api","duration":712,"startTime":"2024-07-11T01:04:49.618866700-05:00[America/Bogota]","result":"SUCCESS","precondition":false,"level":0},{"number":2,"description":"When calls the api to get the users","duration":4346,"startTime":"2024-07-11T01:04:50.334707200-05:00[America/Bogota]","result":"SUCCESS","precondition":false,"level":0,"children":[{"number":3,"description":"Marlon get users","duration":4016,"startTime":"2024-07-11T01:04:50.646704900-05:00[America/Bogota]","result":"SUCCESS","precondition":false,"level":1,"children":[{"number":4,"description":"Marlon executes a GET on the resource /users","duration":2872,"startTime":"2024-07-11T01:04:50.798704800-05:00[America/Bogota]","result":"SUCCESS","precondition":false,"level":2,"children":[{"number":5,"description":"GET https://reqres.in/api/users","duration":0,"startTime":"2024-07-11T01:04:53.671353200-05:00[America/Bogota]","result":"SUCCESS","restQuery":{"method":"GET","path":"https://reqres.in/api/users","content":"","contentType":"application/json","requestHeaders":"Accept\u003d*/*\r\n\t\t\t\tContent-Type\u003dapplication/json","requestCookies":"","responseHeaders":"Date: Thu, 11 Jul 2024 06:04:51 GMT\r\nContent-Type: application/json; charset\u003dutf-8\r\nTransfer-Encoding: chunked\r\nConnection: keep-alive\r\nReport-To: {\"group\":\"heroku-nel\",\"max_age\":3600,\"endpoints\":[{\"url\":\"https://nel.heroku.com/reports?ts\u003d1720372547\u0026sid\u003dc4c9725f-1ab0-44d8-820f-430df2718e11\u0026s\u003d4yARtBfyj8s0bseUjRZDOIUSVv4J1wsB3jyvQKQv0Ic%3D\"}]}\r\nReporting-Endpoints: heroku-nel\u003dhttps://nel.heroku.com/reports?ts\u003d1720372547\u0026sid\u003dc4c9725f-1ab0-44d8-820f-430df2718e11\u0026s\u003d4yARtBfyj8s0bseUjRZDOIUSVv4J1wsB3jyvQKQv0Ic%3D\r\nNel: {\"report_to\":\"heroku-nel\",\"max_age\":3600,\"success_fraction\":0.005,\"failure_fraction\":0.05,\"response_headers\":[\"Via\"]}\r\nX-Powered-By: Express\r\nAccess-Control-Allow-Origin: *\r\nEtag: W/\"3e4-2RLXvr5wTg9YQ6aH95CkYoFNuO8\"\r\nVia: 1.1 vegur\r\nCache-Control: max-age\u003d14400\r\nCF-Cache-Status: REVALIDATED\r\nVary: Accept-Encoding\r\nServer: cloudflare\r\nCF-RAY: 8a1699372ea24c00-MIA\r\nContent-Encoding: gzip\r","responseCookies":"\r","responseBody":"{\n    \"page\": 1,\n    \"per_page\": 6,\n    \"total\": 12,\n    \"total_pages\": 2,\n    \"data\": [\n        {\n            \"id\": 1,\n            \"email\": \"george.bluth@reqres.in\",\n            \"first_name\": \"George\",\n            \"last_name\": \"Bluth\",\n            \"avatar\": \"https://reqres.in/img/faces/1-image.jpg\"\n        },\n        {\n            \"id\": 2,\n            \"email\": \"janet.weaver@reqres.in\",\n            \"first_name\": \"Janet\",\n            \"last_name\": \"Weaver\",\n            \"avatar\": \"https://reqres.in/img/faces/2-image.jpg\"\n        },\n        {\n            \"id\": 3,\n            \"email\": \"emma.wong@reqres.in\",\n            \"first_name\": \"Emma\",\n            \"last_name\": \"Wong\",\n            \"avatar\": \"https://reqres.in/img/faces/3-image.jpg\"\n        },\n        {\n            \"id\": 4,\n            \"email\": \"eve.holt@reqres.in\",\n            \"first_name\": \"Eve\",\n            \"last_name\": \"Holt\",\n            \"avatar\": \"https://reqres.in/img/faces/4-image.jpg\"\n        },\n        {\n            \"id\": 5,\n            \"email\": \"charles.morris@reqres.in\",\n            \"first_name\": \"Charles\",\n            \"last_name\": \"Morris\",\n            \"avatar\": \"https://reqres.in/img/faces/5-image.jpg\"\n        },\n        {\n            \"id\": 6,\n            \"email\": \"tracey.ramos@reqres.in\",\n            \"first_name\": \"Tracey\",\n            \"last_name\": \"Ramos\",\n            \"avatar\": \"https://reqres.in/img/faces/6-image.jpg\"\n        }\n    ],\n    \"support\": {\n        \"url\": \"https://reqres.in/#support-heading\",\n        \"text\": \"To keep ReqRes free, contributions towards server costs are appreciated!\"\n    }\n}","statusCode":200},"precondition":false,"level":3}]}]}]},{"number":6,"description":"Then should see users summary","duration":204,"startTime":"2024-07-11T01:04:54.682355200-05:00[America/Bogota]","result":"SUCCESS","precondition":false,"level":0,"children":[{"number":7,"description":"Then the user response","duration":8,"startTime":"2024-07-11T01:04:54.868355100-05:00[America/Bogota]","result":"SUCCESS","precondition":false,"level":1}]}],"userStory":{"id":"get_user","storyName":"call api successfully","displayName":"call api successfully","path":"get_user","pathElements":[{"name":"get_user","description":""}],"narrative":"  I need to call the get API to get users\n  to validate the users exist","type":"feature"},"title":"call api employee create","description":"","backgroundTitle":"call endpoint","backgroundDescription":"","startTime":"2024-07-11T01:04:49.576867900-05:00[America/Bogota]","duration":753,"projectKey":"","isManualTestingUpToDate":false,"manual":false,"testSource":"Cucumber","actors":[{"name":"Marlon","can":["call an API at https://reqres.in/api","browse the web"]}],"order":0,"result":"SUCCESS"}